date,cash,total_assets,cash+assets
2008-01-09,49447.0,553.0,50000.0
2008-01-10,49447.0,596.0,50043.0
2008-01-11,49447.0,625.0,50072.0
2008-01-12,49447.0,625.0,50072.0
2008-01-13,49447.0,625.0,50072.0
2008-01-14,50088.0,0.0,50088.0
2008-01-15,48916.0,1172.0,50088.0
2008-01-16,48916.0,1179.0,50095.0
2008-01-17,48916.0,1182.0,50098.0
2008-01-18,50152.0,0.0,50152.0
2008-01-19,50152.0,0.0,50152.0
2008-01-20,50152.0,0.0,50152.0
2008-01-21,50152.0,0.0,50152.0
2008-01-22,50152.0,0.0,50152.0
2008-01-23,49566.0,586.0,50152.0
2008-01-24,49566.0,593.0,50159.0
2008-01-25,49566.0,628.0,50194.0
2008-01-26,49566.0,628.0,50194.0
2008-01-27,49566.0,628.0,50194.0
2008-01-28,50224.0,0.0,50224.0
2008-01-29,50224.0,0.0,50224.0
2008-01-30,50224.0,0.0,50224.0
2008-01-31,50224.0,0.0,50224.0
2008-02-01,50224.0,0.0,50224.0
2008-02-02,50224.0,0.0,50224.0
2008-02-03,50224.0,0.0,50224.0
2008-02-04,50224.0,0.0,50224.0
2008-02-05,50224.0,0.0,50224.0
2008-02-06,50224.0,0.0,50224.0
2008-02-07,50224.0,0.0,50224.0
2008-02-08,50224.0,0.0,50224.0
2008-02-09,50224.0,0.0,50224.0
2008-02-10,50224.0,0.0,50224.0
2008-02-11,50224.0,0.0,50224.0
2008-02-12,50224.0,0.0,50224.0
2008-02-13,50224.0,0.0,50224.0
2008-02-14,50224.0,0.0,50224.0
2008-02-15,50224.0,0.0,50224.0
2008-02-16,50224.0,0.0,50224.0
2008-02-17,50224.0,0.0,50224.0
2008-02-18,50224.0,0.0,50224.0
2008-02-19,50224.0,0.0,50224.0
2008-02-20,50224.0,0.0,50224.0
2008-02-21,50224.0,0.0,50224.0
2008-02-22,50224.0,0.0,50224.0
2008-02-23,50224.0,0.0,50224.0
2008-02-24,50224.0,0.0,50224.0
2008-02-25,50224.0,0.0,50224.0
2008-02-26,50224.0,0.0,50224.0
2008-02-27,50224.0,0.0,50224.0
2008-02-28,50224.0,0.0,50224.0
2008-02-29,49641.0,583.0,50224.0
2008-03-01,49641.0,583.0,50224.0
2008-03-02,49641.0,583.0,50224.0
2008-03-03,49641.0,574.0,50215.0
2008-03-04,49641.0,581.0,50222.0
2008-03-05,50227.0,0.0,50227.0
2008-03-06,49633.0,594.0,50227.0
2008-03-07,49633.0,578.0,50211.0
2008-03-08,49633.0,578.0,50211.0
2008-03-09,49633.0,578.0,50211.0
2008-03-10,49633.0,560.0,50193.0
2008-03-11,50223.0,0.0,50223.0
2008-03-12,50223.0,0.0,50223.0
2008-03-13,49624.0,599.0,50223.0
2008-03-14,49624.0,602.0,50226.0
2008-03-15,49624.0,602.0,50226.0
2008-03-16,49624.0,602.0,50226.0
2008-03-17,49058.0,1132.0,50190.0
2008-03-18,49051.0,1191.0,50242.0
2008-03-19,49051.0,1143.0,50194.0
2008-03-20,50286.0,0.0,50286.0
2008-03-21,50286.0,0.0,50286.0
2008-03-22,50286.0,0.0,50286.0
2008-03-23,50286.0,0.0,50286.0
2008-03-24,50286.0,0.0,50286.0
2008-03-25,50286.0,0.0,50286.0
2008-03-26,49699.0,587.0,50286.0
2008-03-27,49699.0,583.0,50282.0
2008-03-28,49108.0,1150.0,50258.0
2008-03-29,49108.0,1150.0,50258.0
2008-03-30,49108.0,1150.0,50258.0
2008-03-31,49680.0,589.0,50269.0
2008-04-01,49680.0,607.0,50287.0
2008-04-02,50299.0,0.0,50299.0
2008-04-03,50299.0,0.0,50299.0
2008-04-04,50299.0,0.0,50299.0
2008-04-05,50299.0,0.0,50299.0
2008-04-06,50299.0,0.0,50299.0
2008-04-07,50299.0,0.0,50299.0
2008-04-08,50299.0,0.0,50299.0
2008-04-09,50299.0,0.0,50299.0
2008-04-10,50299.0,0.0,50299.0
2008-04-11,50299.0,0.0,50299.0
2008-04-12,50299.0,0.0,50299.0
2008-04-13,50299.0,0.0,50299.0
2008-04-14,49713.0,586.0,50299.0
2008-04-15,49713.0,578.0,50291.0
2008-04-16,49713.0,607.0,50320.0
2008-04-17,49713.0,619.0,50332.0
2008-04-18,50324.0,0.0,50324.0
2008-04-19,50324.0,0.0,50324.0
2008-04-20,50324.0,0.0,50324.0
2008-04-21,50324.0,0.0,50324.0
2008-04-22,49728.0,596.0,50324.0
2008-04-23,49728.0,592.0,50320.0
2008-04-24,49728.0,603.0,50331.0
2008-04-25,50334.0,0.0,50334.0
2008-04-26,50334.0,0.0,50334.0
2008-04-27,50334.0,0.0,50334.0
2008-04-28,50334.0,0.0,50334.0
2008-04-29,50334.0,0.0,50334.0
2008-04-30,49738.0,596.0,50334.0
2008-05-01,49738.0,622.0,50360.0
2008-05-02,49738.0,616.0,50354.0
2008-05-03,49738.0,616.0,50354.0
2008-05-04,49738.0,616.0,50354.0
2008-05-05,50391.0,0.0,50391.0
2008-05-06,50391.0,0.0,50391.0
2008-05-07,49242.0,1149.0,50391.0
2008-05-08,49242.0,1154.0,50396.0
2008-05-09,49242.0,1141.0,50383.0
2008-05-10,49242.0,1141.0,50383.0
2008-05-11,49242.0,1141.0,50383.0
2008-05-12,50394.0,0.0,50394.0
2008-05-13,50394.0,0.0,50394.0
2008-05-14,50394.0,0.0,50394.0
2008-05-15,50394.0,0.0,50394.0
2008-05-16,50394.0,0.0,50394.0
2008-05-17,50394.0,0.0,50394.0
2008-05-18,50394.0,0.0,50394.0
2008-05-19,50394.0,0.0,50394.0
2008-05-20,50394.0,0.0,50394.0
2008-05-21,50394.0,0.0,50394.0
2008-05-22,50394.0,0.0,50394.0
2008-05-23,50394.0,0.0,50394.0
2008-05-24,50394.0,0.0,50394.0
2008-05-25,50394.0,0.0,50394.0
2008-05-26,50394.0,0.0,50394.0
2008-05-27,50394.0,0.0,50394.0
2008-05-28,50394.0,0.0,50394.0
2008-05-29,50394.0,0.0,50394.0
2008-05-30,50394.0,0.0,50394.0
2008-05-31,50394.0,0.0,50394.0
2008-06-01,50394.0,0.0,50394.0
2008-06-02,50394.0,0.0,50394.0
2008-06-03,50394.0,0.0,50394.0
2008-06-04,50394.0,0.0,50394.0
2008-06-05,50394.0,0.0,50394.0
2008-06-06,49823.0,571.0,50394.0
2008-06-07,49823.0,571.0,50394.0
2008-06-08,49823.0,571.0,50394.0
2008-06-09,49823.0,560.0,50383.0
2008-06-10,49823.0,543.0,50366.0
2008-06-11,49756.0,597.0,50353.0
2008-06-12,49756.0,600.0,50356.0
2008-06-13,49756.0,627.0,50383.0
2008-06-14,49756.0,627.0,50383.0
2008-06-15,49756.0,627.0,50383.0
2008-06-16,50406.0,0.0,50406.0
2008-06-17,50406.0,0.0,50406.0
2008-06-18,49854.0,552.0,50406.0
2008-06-19,49854.0,514.0,50368.0
2008-06-20,49273.0,1248.0,50521.0
2008-06-21,49273.0,1248.0,50521.0
2008-06-22,49273.0,1248.0,50521.0
2008-06-23,49273.0,1108.0,50381.0
2008-06-24,49273.0,1109.0,50382.0
2008-06-25,49797.0,602.0,50399.0
2008-06-26,49797.0,612.0,50409.0
2008-06-27,49813.0,595.0,50408.0
2008-06-28,49813.0,595.0,50408.0
2008-06-29,49813.0,595.0,50408.0
2008-06-30,49236.0,1160.0,50396.0
2008-07-01,48657.0,1747.0,50404.0
2008-07-02,48037.0,2329.0,50366.0
2008-07-03,49163.0,1133.0,50296.0
2008-07-04,49163.0,1133.0,50296.0
2008-07-05,49163.0,1133.0,50296.0
2008-07-06,49163.0,1133.0,50296.0
2008-07-07,50290.0,0.0,50290.0
2008-07-08,50290.0,0.0,50290.0
2008-07-09,49736.0,554.0,50290.0
2008-07-10,49736.0,572.0,50308.0
2008-07-11,49152.0,1148.0,50300.0
2008-07-12,49152.0,1148.0,50300.0
2008-07-13,49152.0,1148.0,50300.0
2008-07-14,49115.0,1091.0,50206.0
2008-07-15,49115.0,1163.0,50278.0
2008-07-16,49726.0,750.0,50476.0
2008-07-17,49726.0,822.00000000000011,50548.0
2008-07-18,50573.0,0.0,50573.0
2008-07-19,50573.0,0.0,50573.0
2008-07-20,50573.0,0.0,50573.0
2008-07-21,50573.0,0.0,50573.0
2008-07-22,50573.0,0.0,50573.0
2008-07-23,50573.0,0.0,50573.0
2008-07-24,50062.0,511.00000000000006,50573.0
2008-07-25,50062.0,505.0,50567.0
2008-07-26,50062.0,505.0,50567.0
2008-07-27,50062.0,505.0,50567.0
2008-07-28,50062.0,475.0,50537.0
2008-07-29,50564.0,0.0,50564.0
2008-07-30,50564.0,0.0,50564.0
2008-07-31,50564.0,0.0,50564.0
2008-08-01,50564.0,0.0,50564.0
2008-08-02,50564.0,0.0,50564.0
2008-08-03,50564.0,0.0,50564.0
2008-08-04,50564.0,0.0,50564.0
2008-08-05,49992.0,572.0,50564.0
2008-08-06,49992.0,549.0,50541.0
2008-08-07,49992.0,536.0,50528.0
2008-08-08,50559.0,0.0,50559.0
2008-08-09,50559.0,0.0,50559.0
2008-08-10,50559.0,0.0,50559.0
2008-08-11,50559.0,0.0,50559.0
2008-08-12,50559.0,0.0,50559.0
2008-08-13,50559.0,0.0,50559.0
2008-08-14,50559.0,0.0,50559.0
2008-08-15,50559.0,0.0,50559.0
2008-08-16,50559.0,0.0,50559.0
2008-08-17,50559.0,0.0,50559.0
2008-08-18,49980.0,579.0,50559.0
2008-08-19,49980.0,569.0,50549.0
2008-08-20,49980.0,566.0,50546.0
2008-08-21,49980.0,582.0,50562.0
2008-08-22,50565.0,0.0,50565.0
2008-08-23,50565.0,0.0,50565.0
2008-08-24,50565.0,0.0,50565.0
2008-08-25,49973.0,592.0,50565.0
2008-08-26,49973.0,591.0,50564.0
2008-08-27,49973.0,599.0,50572.0
2008-08-28,49973.0,609.0,50582.0
2008-08-29,50576.0,0.0,50576.0
2008-08-30,50576.0,0.0,50576.0
2008-08-31,50576.0,0.0,50576.0
2008-09-01,50576.0,0.0,50576.0
2008-09-02,50576.0,0.0,50576.0
2008-09-03,50576.0,0.0,50576.0
2008-09-04,49992.0,584.0,50576.0
2008-09-05,49992.0,596.0,50588.0
2008-09-06,49992.0,596.0,50588.0
2008-09-07,49992.0,596.0,50588.0
2008-09-08,49992.0,607.0,50599.0
2008-09-09,49992.0,577.0,50569.0
2008-09-10,49992.0,578.0,50570.0
2008-09-11,49992.0,571.0,50563.0
2008-09-12,50567.0,0.0,50567.0
2008-09-13,50567.0,0.0,50567.0
2008-09-14,50567.0,0.0,50567.0
2008-09-15,50091.0,476.0,50567.0
2008-09-16,48898.0,1568.0,50466.0
2008-09-17,48319.0,1907.0,50226.0
2008-09-18,48319.0,2100.0,50419.0
2008-09-19,49925.0,715.0,50640.0
2008-09-20,49925.0,715.0,50640.0
2008-09-21,49925.0,715.0,50640.0
2008-09-22,50575.0,0.0,50575.0
2008-09-23,50575.0,0.0,50575.0
2008-09-24,50575.0,0.0,50575.0
2008-09-25,50575.0,0.0,50575.0
2008-09-26,50575.0,0.0,50575.0
2008-09-27,50575.0,0.0,50575.0
2008-09-28,50575.0,0.0,50575.0
2008-09-29,49520.0,1055.0,50575.0
2008-09-30,49520.0,1416.0,50936.0
2008-10-01,49520.0,1261.0,50781.0
2008-10-02,49520.0,1231.0,50751.0
2008-10-03,50211.0,570.0,50781.0
2008-10-04,50211.0,570.0,50781.0
2008-10-05,50211.0,570.0,50781.0
2008-10-06,50211.0,528.0,50739.0
2008-10-07,49709.0,988.0,50697.0
2008-10-08,50153.0,470.0,50623.0
2008-10-09,48609.0,1916.0,50525.0
2008-10-10,48959.0,1647.0,50606.0
2008-10-11,48959.0,1647.0,50606.0
2008-10-12,48959.0,1647.0,50606.0
2008-10-13,48959.0,1968.0,50927.0
2008-10-14,50723.0,578.0,51301.0
2008-10-15,49632.0,1600.0,51232.0
2008-10-16,49632.0,1661.0,51293.0
2008-10-17,50130.0,1121.0,51251.0
2008-10-18,50130.0,1121.0,51251.0
2008-10-19,50130.0,1121.0,51251.0
2008-10-20,51386.0,0.0,51386.0
2008-10-21,50222.0,1164.0,51386.0
2008-10-22,48498.0,2739.0,51237.0
2008-10-23,47985.0,3010.0,50995.0
2008-10-24,48408.0,2506.0,50914.0
2008-10-25,48408.0,2506.0,50914.0
2008-10-26,48408.0,2506.0,50914.0
2008-10-27,49256.0,1565.0,50821.0
2008-10-28,49772.0,1221.0,50993.0
2008-10-29,50486.0,698.0,51184.0
2008-10-30,49937.0,1366.0,51303.0
2008-10-31,50794.0,546.0,51340.0
2008-11-01,50794.0,546.0,51340.0
2008-11-02,50794.0,546.0,51340.0
2008-11-03,50794.0,537.0,51331.0
2008-11-04,51345.0,0.0,51345.0
2008-11-05,51345.0,0.0,51345.0
2008-11-06,50201.0,1144.0,51345.0
2008-11-07,50201.0,1365.0,51566.0
2008-11-08,50201.0,1365.0,51566.0
2008-11-09,50201.0,1365.0,51566.0
2008-11-10,50201.0,1224.0,51425.0
2008-11-11,49754.0,1528.0,51282.0
2008-11-12,47518.0,3574.0,51092.0
2008-11-13,47518.0,4136.0,51654.0
2008-11-14,47295.0,4003.0,51298.0
2008-11-15,47295.0,4003.0,51298.0
2008-11-16,47295.0,4003.0,51298.0
2008-11-17,48971.0,2186.0,51157.0
2008-11-18,48382.0,2794.0,51176.0
2008-11-19,45939.0,4822.0,50761.0
2008-11-20,41077.0,9232.0,50309.0
2008-11-21,41905.0,9104.0,51009.0
2008-11-22,41905.0,9104.0,51009.0
2008-11-23,41905.0,9104.0,51009.0
2008-11-24,46478.0,6069.0,52547.0
2008-11-25,53098.0,0.0,53098.0
2008-11-26,53098.0,0.0,53098.0
2008-11-27,53098.0,0.0,53098.0
2008-11-28,53098.0,0.0,53098.0
2008-11-29,53098.0,0.0,53098.0
2008-11-30,53098.0,0.0,53098.0
2008-12-01,50809.0,2289.0,53098.0
2008-12-02,50809.0,2525.0,53334.0
2008-12-03,50809.0,2716.0,53525.0
2008-12-04,50809.0,2646.0,53455.0
2008-12-05,53674.0,0.0,53674.0
2008-12-06,53674.0,0.0,53674.0
2008-12-07,53674.0,0.0,53674.0
2008-12-08,53674.0,0.0,53674.0
2008-12-09,53095.0,579.0,53674.0
2008-12-10,53095.0,390.0,53485.0
2008-12-11,52529.0,910.0,53439.0
2008-12-12,52797.0,563.0,53360.0
2008-12-13,52797.0,563.0,53360.0
2008-12-14,52797.0,563.0,53360.0
2008-12-15,52207.0,1128.0,53335.0
2008-12-16,52830.0,639.0,53469.0
2008-12-17,52830.0,665.0,53495.0
2008-12-18,52236.0,1188.0,53424.0
2008-12-19,52848.0,612.0,53460.0
2008-12-20,52848.0,612.0,53460.0
2008-12-21,52848.0,612.0,53460.0
2008-12-22,52269.0,1158.0,53427.0
2008-12-23,52825.0,556.0,53381.0
2008-12-24,52227.0,1162.0,53389.0
2008-12-25,52227.0,1162.0,53389.0
2008-12-26,52785.0,632.0,53417.0
2008-12-27,52785.0,632.0,53417.0
2008-12-28,52785.0,632.0,53417.0
2008-12-29,53404.0,0.0,53404.0
2008-12-30,53404.0,0.0,53404.0
2008-12-31,53404.0,0.0,53404.0
2009-01-01,53404.0,0.0,53404.0
2009-01-02,53404.0,0.0,53404.0
2009-01-03,53404.0,0.0,53404.0
2009-01-04,53404.0,0.0,53404.0
2009-01-05,53404.0,0.0,53404.0
2009-01-06,53404.0,0.0,53404.0
2009-01-07,53404.0,0.0,53404.0
2009-01-08,53404.0,0.0,53404.0
2009-01-09,53404.0,0.0,53404.0
2009-01-10,53404.0,0.0,53404.0
2009-01-11,53404.0,0.0,53404.0
2009-01-12,52844.0,560.0,53404.0
2009-01-13,52253.0,1181.0,53434.0
2009-01-14,52253.0,948.0,53201.0
2009-01-15,51715.0,1350.0,53065.0
2009-01-16,51929.0,1135.0,53064.0
2009-01-17,51929.0,1135.0,53064.0
2009-01-18,51929.0,1135.0,53064.0
2009-01-19,51929.0,1135.0,53064.0
2009-01-20,49667.0,3230.0,52897.0
2009-01-21,50304.0,3064.0,53368.0
2009-01-22,49159.0,4020.0,53179.0
2009-01-23,52249.0,1213.0,53462.0
2009-01-24,52249.0,1213.0,53462.0
2009-01-25,52249.0,1213.0,53462.0
2009-01-26,51671.0,1774.0,53445.0
2009-01-27,52909.0,612.0,53521.0
2009-01-28,52909.0,636.0,53545.0
2009-01-29,52333.0,1185.0,53518.0
2009-01-30,50588.0,2865.0,53453.0
2009-01-31,50588.0,2865.0,53453.0
2009-02-01,50588.0,2865.0,53453.0
2009-02-02,49407.0,4041.0,53448.0
2009-02-03,49423.0,4150.0,53573.0
2009-02-04,51832.0,1676.0,53508.0
2009-02-05,51832.0,1762.0,53594.0
2009-02-06,53785.0,0.0,53785.0
2009-02-07,53785.0,0.0,53785.0
2009-02-08,53785.0,0.0,53785.0
2009-02-09,53785.0,0.0,53785.0
2009-02-10,51495.0,2290.0,53785.0
2009-02-11,51495.0,2377.0,53872.0
2009-02-12,50312.0,3545.0,53857.0
2009-02-13,51891.0,1754.0,53645.0
2009-02-14,51891.0,1754.0,53645.0
2009-02-15,51891.0,1754.0,53645.0
2009-02-16,51891.0,1754.0,53645.0
2009-02-17,51785.0,1699.0,53484.0
2009-02-18,51730.0,1750.0,53480.0
2009-02-19,50050.0,3365.0,53415.0
2009-02-20,50538.0,2917.0,53455.0
2009-02-21,50538.0,2917.0,53455.0
2009-02-22,50538.0,2917.0,53455.0
2009-02-23,48753.0,4643.0,53396.0
2009-02-24,50832.0,3064.0,53896.0
2009-02-25,49564.0,4210.0,53774.0
2009-02-26,47824.0,5878.0,53702.0
2009-02-27,48975.0,4461.0,53436.0
2009-02-28,48975.0,4461.0,53436.0
2009-03-01,48975.0,4461.0,53436.0
2009-03-02,48797.0,4101.0,52898.0
2009-03-03,50181.0,2599.0,52780.0
2009-03-04,51255.0,1690.0,52945.0
2009-03-05,48396.0,4298.0,52694.0
2009-03-06,49791.0,2771.0,52562.0
2009-03-07,49791.0,2771.0,52562.0
2009-03-08,49791.0,2771.0,52562.0
2009-03-09,49203.0,3331.0,52534.0
2009-03-10,52325.0,727.0,53052.0
2009-03-11,51155.0,1923.0,53078.0
2009-03-12,51155.0,2080.0,53235.0
2009-03-13,51347.0,1781.0,53128.0
2009-03-14,51347.0,1781.0,53128.0
2009-03-15,51347.0,1781.0,53128.0
2009-03-16,52584.0,501.0,53085.0
2009-03-17,52025.0,1126.0,53151.0
2009-03-18,52625.0,548.0,53173.0
2009-03-19,52080.0,1185.0,53265.0
2009-03-20,51005.0,2240.0,53245.0
2009-03-21,51005.0,2240.0,53245.0
2009-03-22,51005.0,2240.0,53245.0
2009-03-23,51005.0,2619.0,53624.0
2009-03-24,50413.0,3042.0,53455.0
2009-03-25,52382.0,1173.0,53555.0
2009-03-26,52382.0,1219.0,53601.0
2009-03-27,53550.0,0.0,53550.0
2009-03-28,53550.0,0.0,53550.0
2009-03-29,53550.0,0.0,53550.0
2009-03-30,50733.0,2817.0,53550.0
2009-03-31,50733.0,2933.0,53666.0
2009-04-01,50135.0,3657.0,53792.0
2009-04-02,50135.0,3838.0,53973.0
2009-04-03,53465.0,673.0,54138.0
2009-04-04,53465.0,673.0,54138.0
2009-04-05,53465.0,673.0,54138.0
2009-04-06,53515.0,590.0,54105.0
2009-04-07,52385.0,1699.0,54084.0
2009-04-08,52385.0,1860.0,54245.0
2009-04-09,54536.0,0.0,54536.0
2009-04-10,54536.0,0.0,54536.0
2009-04-11,54536.0,0.0,54536.0
2009-04-12,54536.0,0.0,54536.0
2009-04-13,54536.0,0.0,54536.0
2009-04-14,53963.0,573.0,54536.0
2009-04-15,53378.0,1185.0,54563.0
2009-04-16,52789.0,1813.0,54602.0
2009-04-17,53281.0,1175.0,54456.0
2009-04-18,53281.0,1175.0,54456.0
2009-04-19,53281.0,1175.0,54456.0
2009-04-20,51626.0,2736.0,54362.0
2009-04-21,52113.0,2553.0,54666.0
2009-04-22,50941.0,3631.0,54572.0
2009-04-23,50941.0,3735.0,54676.0
2009-04-24,53634.0,1178.0,54812.0
2009-04-25,53634.0,1178.0,54812.0
2009-04-26,53634.0,1178.0,54812.0
2009-04-27,54726.0,0.0,54726.0
2009-04-28,54140.0,586.0,54726.0
2009-04-29,54140.0,635.0,54775.0
2009-04-30,54140.0,704.0,54844.0
2009-05-01,54271.0,588.0,54859.0
2009-05-02,54271.0,588.0,54859.0
2009-05-03,54271.0,588.0,54859.0
2009-05-04,54271.0,702.0,54973.0
2009-05-05,53681.0,1249.0,54930.0
2009-05-06,54450.0,611.0,55061.0
2009-05-07,53310.0,1718.0,55028.0
2009-05-08,53893.0,1247.0,55140.0
2009-05-09,53893.0,1247.0,55140.0
2009-05-10,53893.0,1247.0,55140.0
2009-05-11,52716.0,2320.0,55036.0
2009-05-12,53352.0,1631.0,54983.0
2009-05-13,51631.0,3229.0,54860.0
2009-05-14,51631.0,3386.0,55017.0
2009-05-15,53220.0,1788.0,55008.0
2009-05-16,53220.0,1788.0,55008.0
2009-05-17,53220.0,1788.0,55008.0
2009-05-18,55096.0,0.0,55096.0
2009-05-19,54526.0,570.0,55096.0
2009-05-20,54526.0,564.0,55090.0
2009-05-21,54526.0,544.0,55070.0
2009-05-22,54475.0,577.0,55052.0
2009-05-23,54475.0,577.0,55052.0
2009-05-24,54475.0,577.0,55052.0
2009-05-25,54475.0,577.0,55052.0
2009-05-26,54475.0,625.0,55100.0
2009-05-27,55081.0,0.0,55081.0
2009-05-28,55081.0,0.0,55081.0
2009-05-29,55081.0,0.0,55081.0
2009-05-30,55081.0,0.0,55081.0
2009-05-31,55081.0,0.0,55081.0
2009-06-01,55081.0,0.0,55081.0
2009-06-02,55081.0,0.0,55081.0
2009-06-03,54498.0,583.0,55081.0
2009-06-04,54498.0,654.0,55152.0
2009-06-05,54498.0,661.0,55159.0
2009-06-06,54498.0,661.0,55159.0
2009-06-07,54498.0,661.0,55159.0
2009-06-08,55291.0,0.0,55291.0
2009-06-09,55291.0,0.0,55291.0
2009-06-10,55291.0,0.0,55291.0
2009-06-11,54693.0,598.0,55291.0
2009-06-12,54693.0,611.0,55304.0
2009-06-13,54693.0,611.0,55304.0
2009-06-14,54693.0,611.0,55304.0
2009-06-15,52940.0,2346.0,55286.0
2009-06-16,52917.0,2299.0,55216.0
2009-06-17,52338.0,2826.0,55164.0
2009-06-18,52338.0,2887.0,55225.0
2009-06-19,54660.0,680.0,55340.0
2009-06-20,54660.0,680.0,55340.0
2009-06-21,54660.0,680.0,55340.0
2009-06-22,54720.0,550.0,55270.0
2009-06-23,54720.0,527.0,55247.0
2009-06-24,54720.0,516.0,55236.0
2009-06-25,54720.0,512.0,55232.0
2009-06-26,55240.0,0.0,55240.0
2009-06-27,55240.0,0.0,55240.0
2009-06-28,55240.0,0.0,55240.0
2009-06-29,55240.0,0.0,55240.0
2009-06-30,55240.0,0.0,55240.0
2009-07-01,54649.0,591.0,55240.0
2009-07-02,54649.0,589.0,55238.0
2009-07-03,54649.0,589.0,55238.0
2009-07-04,54649.0,589.0,55238.0
2009-07-05,54649.0,589.0,55238.0
2009-07-06,55224.0,0.0,55224.0
2009-07-07,54644.0,580.0,55224.0
2009-07-08,54112.0,1110.0,55222.0
2009-07-09,54112.0,1159.0,55271.0
2009-07-10,54709.0,535.0,55244.0
2009-07-11,54709.0,535.0,55244.0
2009-07-12,54709.0,535.0,55244.0
2009-07-13,55279.0,0.0,55279.0
2009-07-14,55279.0,0.0,55279.0
2009-07-15,55279.0,0.0,55279.0
2009-07-16,55279.0,0.0,55279.0
2009-07-17,55279.0,0.0,55279.0
2009-07-18,55279.0,0.0,55279.0
2009-07-19,55279.0,0.0,55279.0
2009-07-20,55279.0,0.0,55279.0
2009-07-21,55279.0,0.0,55279.0
2009-07-22,55279.0,0.0,55279.0
2009-07-23,55279.0,0.0,55279.0
2009-07-24,55279.0,0.0,55279.0
2009-07-25,55279.0,0.0,55279.0
2009-07-26,55279.0,0.0,55279.0
2009-07-27,55279.0,0.0,55279.0
2009-07-28,54738.0,541.0,55279.0
2009-07-29,54738.0,517.0,55255.0
2009-07-30,54738.0,521.0,55259.0
2009-07-31,55259.0,0.0,55259.0
2009-08-01,55259.0,0.0,55259.0
2009-08-02,55259.0,0.0,55259.0
2009-08-03,55259.0,0.0,55259.0
2009-08-04,55259.0,0.0,55259.0
2009-08-05,54662.0,597.0,55259.0
2009-08-06,54662.0,587.0,55249.0
2009-08-07,54662.0,599.0,55261.0
2009-08-08,54662.0,599.0,55261.0
2009-08-09,54662.0,599.0,55261.0
2009-08-10,54668.0,587.0,55255.0
2009-08-11,54668.0,601.0,55269.0
2009-08-12,54069.0,1198.0,55267.0
2009-08-13,54069.0,1280.0,55349.0
2009-08-14,54108.0,1213.0,55321.0
2009-08-15,54108.0,1213.0,55321.0
2009-08-16,54108.0,1213.0,55321.0
2009-08-17,54108.0,1163.0,55271.0
2009-08-18,54108.0,1173.0,55281.0
2009-08-19,54687.0,590.0,55277.0
2009-08-20,54687.0,610.0,55297.0
2009-08-21,55334.0,0.0,55334.0
2009-08-22,55334.0,0.0,55334.0
2009-08-23,55334.0,0.0,55334.0
2009-08-24,55334.0,0.0,55334.0
2009-08-25,55334.0,0.0,55334.0
2009-08-26,55334.0,0.0,55334.0
2009-08-27,55334.0,0.0,55334.0
2009-08-28,55334.0,0.0,55334.0
2009-08-29,55334.0,0.0,55334.0
2009-08-30,55334.0,0.0,55334.0
2009-08-31,55334.0,0.0,55334.0
2009-09-01,55334.0,0.0,55334.0
2009-09-02,54752.0,582.0,55334.0
2009-09-03,54153.0,1194.0,55347.0
2009-09-04,54775.0,618.0,55393.0
2009-09-05,54775.0,618.0,55393.0
2009-09-06,54775.0,618.0,55393.0
2009-09-07,54775.0,618.0,55393.0
2009-09-08,55415.0,0.0,55415.0
2009-09-09,55415.0,0.0,55415.0
2009-09-10,55415.0,0.0,55415.0
2009-09-11,54822.0,593.0,55415.0
2009-09-12,54822.0,593.0,55415.0
2009-09-13,54822.0,593.0,55415.0
2009-09-14,54822.0,601.0,55423.0
2009-09-15,54822.0,646.0,55468.0
2009-09-16,55524.0,0.0,55524.0
2009-09-17,55524.0,0.0,55524.0
2009-09-18,55524.0,0.0,55524.0
2009-09-19,55524.0,0.0,55524.0
2009-09-20,55524.0,0.0,55524.0
2009-09-21,55524.0,0.0,55524.0
2009-09-22,55524.0,0.0,55524.0
2009-09-23,55524.0,0.0,55524.0
2009-09-24,54958.0,566.0,55524.0
2009-09-25,54958.0,583.0,55541.0
2009-09-26,54958.0,583.0,55541.0
2009-09-27,54958.0,583.0,55541.0
2009-09-28,54958.0,594.0,55552.0
2009-09-29,55536.0,0.0,55536.0
2009-09-30,55536.0,0.0,55536.0
2009-10-01,54939.0,597.0,55536.0
2009-10-02,54939.0,579.0,55518.0
2009-10-03,54939.0,579.0,55518.0
2009-10-04,54939.0,579.0,55518.0
2009-10-05,54939.0,596.0,55535.0
2009-10-06,55529.0,0.0,55529.0
2009-10-07,55529.0,0.0,55529.0
2009-10-08,54935.0,594.0,55529.0
2009-10-09,54935.0,595.0,55530.0
2009-10-10,54935.0,595.0,55530.0
2009-10-11,54935.0,595.0,55530.0
2009-10-12,54935.0,600.0,55535.0
2009-10-13,54935.0,596.0,55531.0
2009-10-14,54935.0,609.0,55544.0
2009-10-15,54935.0,609.0,55544.0
2009-10-16,53767.0,1751.0,55518.0
2009-10-17,53767.0,1751.0,55518.0
2009-10-18,53767.0,1751.0,55518.0
2009-10-19,53767.0,1773.0,55540.0
2009-10-20,53767.0,1803.0,55570.0
2009-10-21,55528.0,0.0,55528.0
2009-10-22,55528.0,0.0,55528.0
2009-10-23,54949.0,579.0,55528.0
2009-10-24,54949.0,579.0,55528.0
2009-10-25,54949.0,579.0,55528.0
2009-10-26,54949.0,556.0,55505.0
2009-10-27,54366.0,1129.0,55495.0
2009-10-28,53700.0,1727.0,55427.0
2009-10-29,53700.0,1783.0,55483.0
2009-10-30,54239.0,1161.0,55400.0
2009-10-31,54239.0,1161.0,55400.0
2009-11-01,54239.0,1161.0,55400.0
2009-11-02,54791.0,589.0,55380.0
2009-11-03,54791.0,599.0,55390.0
2009-11-04,54791.0,611.0,55402.0
2009-11-05,54791.0,638.0,55429.0
2009-11-06,54840.0,598.0,55438.0
2009-11-07,54840.0,598.0,55438.0
2009-11-08,54840.0,598.0,55438.0
2009-11-09,54840.0,604.0,55444.0
2009-11-10,54255.0,1170.0,55425.0
2009-11-11,54852.0,597.0,55449.0
2009-11-12,54852.0,611.0,55463.0
2009-11-13,55452.0,0.0,55452.0
2009-11-14,55452.0,0.0,55452.0
2009-11-15,55452.0,0.0,55452.0
2009-11-16,55452.0,0.0,55452.0
2009-11-17,55452.0,0.0,55452.0
2009-11-18,55452.0,0.0,55452.0
2009-11-19,55452.0,0.0,55452.0
2009-11-20,55452.0,0.0,55452.0
2009-11-21,55452.0,0.0,55452.0
2009-11-22,55452.0,0.0,55452.0
2009-11-23,55452.0,0.0,55452.0
2009-11-24,55452.0,0.0,55452.0
2009-11-25,55452.0,0.0,55452.0
2009-11-26,55452.0,0.0,55452.0
2009-11-27,55452.0,0.0,55452.0
2009-11-28,55452.0,0.0,55452.0
2009-11-29,55452.0,0.0,55452.0
2009-11-30,55452.0,0.0,55452.0
2009-12-01,55452.0,0.0,55452.0
2009-12-02,55452.0,0.0,55452.0
2009-12-03,54866.0,586.0,55452.0
2009-12-04,54866.0,616.0,55482.0
2009-12-05,54866.0,616.0,55482.0
2009-12-06,54866.0,616.0,55482.0
2009-12-07,54277.0,1178.0,55455.0
2009-12-08,54860.0,583.0,55443.0
2009-12-09,54860.0,595.0,55455.0
2009-12-10,54860.0,588.0,55448.0
2009-12-11,55467.0,0.0,55467.0
2009-12-12,55467.0,0.0,55467.0
2009-12-13,55467.0,0.0,55467.0
2009-12-14,55467.0,0.0,55467.0
2009-12-15,54885.0,582.0,55467.0
2009-12-16,54885.0,574.0,55459.0
2009-12-17,54885.0,552.0,55437.0
2009-12-18,55441.0,0.0,55441.0
2009-12-19,55441.0,0.0,55441.0
2009-12-20,55441.0,0.0,55441.0
2009-12-21,55441.0,0.0,55441.0
2009-12-22,55441.0,0.0,55441.0
2009-12-23,55441.0,0.0,55441.0
2009-12-24,55441.0,0.0,55441.0
2009-12-25,55441.0,0.0,55441.0
2009-12-26,55441.0,0.0,55441.0
2009-12-27,55441.0,0.0,55441.0
2009-12-28,55441.0,0.0,55441.0
2009-12-29,54845.0,596.0,55441.0
2009-12-30,54845.0,600.0,55445.0
2009-12-31,55446.0,0.0,55446.0
