2008-01-09,AMD,Buy,100
2008-01-14,AMD,Sell,100
2008-01-15,F,Buy,100
2008-01-18,F,Sell,100
2008-01-15,MU,Buy,100
2008-01-18,MU,Sell,100
2008-01-23,MSI,Buy,100
2008-01-28,MSI,Sell,100
2008-02-29,MSI,Buy,100
2008-03-05,MSI,Sell,100
2008-03-06,F,Buy,100
2008-03-11,F,Sell,100
2008-03-13,S,Buy,100
2008-03-18,S,Sell,100
2008-03-17,S,Buy,100
2008-03-20,S,Sell,100
2008-03-18,MU,Buy,100
2008-03-20,MU,Sell,100
2008-03-26,F,Buy,100
2008-03-31,F,Sell,100
2008-03-28,AMD,Buy,100
2008-04-02,AMD,Sell,100
2008-04-14,AMD,Buy,100
2008-04-18,AMD,Sell,100
2008-04-22,AMD,Buy,100
2008-04-25,AMD,Sell,100
2008-04-30,AMD,Buy,100
2008-05-05,AMD,Sell,100
2008-05-07,MSI,Buy,100
2008-05-12,MSI,Sell,100
2008-05-07,THC,Buy,100
2008-05-12,THC,Sell,100
2008-06-06,THC,Buy,100
2008-06-11,THC,Sell,100
2008-06-11,F,Buy,100
2008-06-16,F,Sell,100
2008-06-18,HBAN,Buy,100
2008-06-23,HBAN,Sell,100
2008-06-20,F,Buy,100
2008-06-25,F,Sell,100
2008-06-23,HBAN,Buy,100
2008-06-27,HBAN,Sell,100
2008-06-27,AMD,Buy,100
2008-07-02,AMD,Sell,100
2008-06-30,HBAN,Buy,100
2008-07-03,HBAN,Sell,100
2008-07-01,MU,Buy,100
2008-07-03,MU,Sell,100
2008-07-02,HBAN,Buy,100
2008-07-07,HBAN,Sell,100
2008-07-02,LSI,Buy,100
2008-07-07,LSI,Sell,100
2008-07-09,HBAN,Buy,100
2008-07-14,HBAN,Sell,100
2008-07-11,LSI,Buy,100
2008-07-16,LSI,Sell,100
2008-07-14,FHN,Buy,100
2008-07-18,FHN,Sell,100
2008-07-24,F,Buy,100
2008-07-29,F,Sell,100
2008-08-05,THC,Buy,100
2008-08-08,THC,Sell,100
2008-08-18,MSI,Buy,100
2008-08-22,MSI,Sell,100
2008-08-25,THC,Buy,100
2008-08-29,THC,Sell,100
2008-09-04,AMD,Buy,100
2008-09-09,AMD,Sell,100
2008-09-09,AMD,Buy,100
2008-09-12,AMD,Sell,100
2008-09-15,AIG,Buy,100
2008-09-19,AIG,Sell,100
2008-09-16,LSI,Buy,100
2008-09-19,LSI,Sell,100
2008-09-16,THC,Buy,100
2008-09-19,THC,Sell,100
2008-09-17,S,Buy,100
2008-09-22,S,Sell,100
2008-09-29,GNW,Buy,100
2008-10-03,GNW,Sell,100
2008-09-29,THC,Buy,100
2008-10-03,THC,Sell,100
2008-10-03,S,Buy,100
2008-10-08,S,Sell,100
2008-10-07,GNW,Buy,100
2008-10-10,GNW,Sell,100
2008-10-09,IPG,Buy,100
2008-10-14,IPG,Sell,100
2008-10-09,TER,Buy,100
2008-10-14,TER,Sell,100
2008-10-09,XL,Buy,100
2008-10-14,XL,Sell,100
2008-10-14,IPG,Buy,100
2008-10-17,IPG,Sell,100
2008-10-15,GNW,Buy,100
2008-10-20,GNW,Sell,100
2008-10-15,TER,Buy,100
2008-10-20,TER,Sell,100
2008-10-21,GNW,Buy,100
2008-10-24,GNW,Sell,100
2008-10-21,TER,Buy,100
2008-10-24,TER,Sell,100
2008-10-22,AN,Buy,100
2008-10-27,AN,Sell,100
2008-10-22,CBG,Buy,100
2008-10-27,CBG,Sell,100
2008-10-22,JDSU,Buy,100
2008-10-27,JDSU,Sell,100
2008-10-23,DHI,Buy,100
2008-10-28,DHI,Sell,100
2008-10-24,WYN,Buy,100
2008-10-29,WYN,Sell,100
2008-10-27,MYL,Buy,100
2008-10-31,MYL,Sell,100
2008-10-30,JDSU,Buy,100
2008-11-04,JDSU,Sell,100
2008-11-06,AN,Buy,100
2008-11-11,AN,Sell,100
2008-11-06,CBG,Buy,100
2008-11-11,CBG,Sell,100
2008-11-11,CBG,Buy,100
2008-11-14,CBG,Sell,100
2008-11-11,STX,Buy,100
2008-11-14,STX,Sell,100
2008-11-11,TSN,Buy,100
2008-11-14,TSN,Sell,100
2008-11-12,AN,Buy,100
2008-11-17,AN,Sell,100
2008-11-12,DHI,Buy,100
2008-11-17,DHI,Sell,100
2008-11-12,GT,Buy,100
2008-11-17,GT,Sell,100
2008-11-12,WYN,Buy,100
2008-11-17,WYN,Sell,100
2008-11-14,DHI,Buy,100
2008-11-19,DHI,Sell,100
2008-11-14,GT,Buy,100
2008-11-19,GT,Sell,100
2008-11-14,WYN,Buy,100
2008-11-19,WYN,Sell,100
2008-11-17,XL,Buy,100
2008-11-21,XL,Sell,100
2008-11-18,LEN,Buy,100
2008-11-21,LEN,Sell,100
2008-11-19,CBS,Buy,100
2008-11-24,CBS,Sell,100
2008-11-19,HST,Buy,100
2008-11-24,HST,Sell,100
2008-11-19,JBL,Buy,100
2008-11-24,JBL,Sell,100
2008-11-19,M,Buy,100
2008-11-24,M,Sell,100
2008-11-19,SLM,Buy,100
2008-11-24,SLM,Sell,100
2008-11-19,XL,Buy,100
2008-11-24,XL,Sell,100
2008-11-19,XRX,Buy,100
2008-11-24,XRX,Sell,100
2008-11-20,BSX,Buy,100
2008-11-25,BSX,Sell,100
2008-11-20,C,Buy,100
2008-11-25,C,Sell,100
2008-11-20,DNR,Buy,100
2008-11-25,DNR,Sell,100
2008-11-20,HIG,Buy,100
2008-11-25,HIG,Sell,100
2008-11-20,LNC,Buy,100
2008-11-25,LNC,Sell,100
2008-11-20,NVDA,Buy,100
2008-11-25,NVDA,Sell,100
2008-11-20,NWSA,Buy,100
2008-11-25,NWSA,Sell,100
2008-11-20,SNDK,Buy,100
2008-11-25,SNDK,Sell,100
2008-11-20,TIE,Buy,100
2008-11-25,TIE,Sell,100
2008-12-01,BSX,Buy,100
2008-12-05,BSX,Sell,100
2008-12-01,CBS,Buy,100
2008-12-05,CBS,Sell,100
2008-12-01,GT,Buy,100
2008-12-05,GT,Sell,100
2008-12-01,HST,Buy,100
2008-12-05,HST,Sell,100
2008-12-09,XL,Buy,100
2008-12-12,XL,Sell,100
2008-12-11,WYN,Buy,100
2008-12-16,WYN,Sell,100
2008-12-15,GT,Buy,100
2008-12-19,GT,Sell,100
2008-12-18,GT,Buy,100
2008-12-23,GT,Sell,100
2008-12-22,GT,Buy,100
2008-12-26,GT,Sell,100
2008-12-24,JBL,Buy,100
2008-12-29,JBL,Sell,100
2009-01-12,C,Buy,100
2009-01-16,C,Sell,100
2009-01-13,HBAN,Buy,100
2009-01-16,HBAN,Sell,100
2009-01-15,FITB,Buy,100
2009-01-20,FITB,Sell,100
2009-01-16,JBL,Buy,100
2009-01-21,JBL,Sell,100
2009-01-20,BAC,Buy,100
2009-01-23,BAC,Sell,100
2009-01-20,GT,Buy,100
2009-01-23,GT,Sell,100
2009-01-20,HST,Buy,100
2009-01-23,HST,Sell,100
2009-01-20,KEY,Buy,100
2009-01-23,KEY,Sell,100
2009-01-20,RF,Buy,100
2009-01-23,RF,Sell,100
2009-01-22,BAC,Buy,100
2009-01-27,BAC,Sell,100
2009-01-22,HST,Buy,100
2009-01-27,HST,Sell,100
2009-01-26,JBL,Buy,100
2009-01-30,JBL,Sell,100
2009-01-29,HST,Buy,100
2009-02-03,HST,Sell,100
2009-01-30,CBS,Buy,100
2009-02-04,CBS,Sell,100
2009-01-30,DHI,Buy,100
2009-02-04,DHI,Sell,100
2009-01-30,GCI,Buy,100
2009-02-04,GCI,Sell,100
2009-01-30,JBL,Buy,100
2009-02-04,JBL,Sell,100
2009-02-02,GT,Buy,100
2009-02-06,GT,Sell,100
2009-02-02,WYN,Buy,100
2009-02-06,WYN,Sell,100
2009-02-03,BAC,Buy,100
2009-02-06,BAC,Sell,100
2009-02-10,BAC,Buy,100
2009-02-13,BAC,Sell,100
2009-02-10,CBS,Buy,100
2009-02-13,CBS,Sell,100
2009-02-10,JBL,Buy,100
2009-02-13,JBL,Sell,100
2009-02-10,WYN,Buy,100
2009-02-13,WYN,Sell,100
2009-02-12,BAC,Buy,100
2009-02-17,BAC,Sell,100
2009-02-12,JBL,Buy,100
2009-02-17,JBL,Sell,100
2009-02-13,AIV,Buy,100
2009-02-18,AIV,Sell,100
2009-02-17,JBL,Buy,100
2009-02-20,JBL,Sell,100
2009-02-17,MAS,Buy,100
2009-02-20,MAS,Sell,100
2009-02-18,XRX,Buy,100
2009-02-23,XRX,Sell,100
2009-02-19,DFS,Buy,100
2009-02-24,DFS,Sell,100
2009-02-19,KEY,Buy,100
2009-02-24,KEY,Sell,100
2009-02-19,LEN,Buy,100
2009-02-24,LEN,Sell,100
2009-02-20,GT,Buy,100
2009-02-25,GT,Sell,100
2009-02-23,AA,Buy,100
2009-02-27,AA,Sell,100
2009-02-23,IP,Buy,100
2009-02-27,IP,Sell,100
2009-02-23,NWSA,Buy,100
2009-02-27,NWSA,Sell,100
2009-02-23,TXT,Buy,100
2009-02-27,TXT,Sell,100
2009-02-25,NWL,Buy,100
2009-03-02,NWL,Sell,100
2009-02-25,TIE,Buy,100
2009-03-02,TIE,Sell,100
2009-02-25,TXT,Buy,100
2009-03-02,TXT,Sell,100
2009-02-26,IP,Buy,100
2009-03-03,IP,Sell,100
2009-02-26,NWSA,Buy,100
2009-03-03,NWSA,Sell,100
2009-02-26,SLM,Buy,100
2009-03-03,SLM,Sell,100
2009-02-27,DFS,Buy,100
2009-03-04,DFS,Sell,100
2009-02-27,LUV,Buy,100
2009-03-04,LUV,Sell,100
2009-03-02,AA,Buy,100
2009-03-06,AA,Sell,100
2009-03-02,AES,Buy,100
2009-03-06,AES,Sell,100
2009-03-02,HIG,Buy,100
2009-03-06,HIG,Sell,100
2009-03-05,AA,Buy,100
2009-03-10,AA,Sell,100
2009-03-05,FTR,Buy,100
2009-03-10,FTR,Sell,100
2009-03-05,KEY,Buy,100
2009-03-10,KEY,Sell,100
2009-03-05,LNC,Buy,100
2009-03-10,LNC,Sell,100
2009-03-05,RRD,Buy,100
2009-03-10,RRD,Sell,100
2009-03-09,PFG,Buy,100
2009-03-13,PFG,Sell,100
2009-03-11,AA,Buy,100
2009-03-16,AA,Sell,100
2009-03-11,DFS,Buy,100
2009-03-16,DFS,Sell,100
2009-03-13,AIV,Buy,100
2009-03-18,AIV,Sell,100
2009-03-17,AA,Buy,100
2009-03-20,AA,Sell,100
2009-03-19,AIV,Buy,100
2009-03-24,AIV,Sell,100
2009-03-20,DFS,Buy,100
2009-03-25,DFS,Sell,100
2009-03-20,GT,Buy,100
2009-03-25,GT,Sell,100
2009-03-20,TXT,Buy,100
2009-03-25,TXT,Sell,100
2009-03-24,AIV,Buy,100
2009-03-27,AIV,Sell,100
2009-03-24,LUV,Buy,100
2009-03-27,LUV,Sell,100
2009-03-30,AES,Buy,100
2009-04-03,AES,Sell,100
2009-03-30,DFS,Buy,100
2009-04-03,DFS,Sell,100
2009-03-30,STX,Buy,100
2009-04-03,STX,Sell,100
2009-03-30,TXT,Buy,100
2009-04-03,TXT,Sell,100
2009-03-30,XL,Buy,100
2009-04-03,XL,Sell,100
2009-04-01,STX,Buy,100
2009-04-06,STX,Sell,100
2009-04-06,XL,Buy,100
2009-04-09,XL,Sell,100
2009-04-07,JBL,Buy,100
2009-04-09,JBL,Sell,100
2009-04-07,WYN,Buy,100
2009-04-09,WYN,Sell,100
2009-04-14,SLM,Buy,100
2009-04-17,SLM,Sell,100
2009-04-15,STX,Buy,100
2009-04-20,STX,Sell,100
2009-04-16,SLM,Buy,100
2009-04-21,SLM,Sell,100
2009-04-20,AIV,Buy,100
2009-04-24,AIV,Sell,100
2009-04-20,CBS,Buy,100
2009-04-24,CBS,Sell,100
2009-04-20,HST,Buy,100
2009-04-24,HST,Sell,100
2009-04-20,RF,Buy,100
2009-04-24,RF,Sell,100
2009-04-22,CBS,Buy,100
2009-04-27,CBS,Sell,100
2009-04-22,RF,Buy,100
2009-04-27,RF,Sell,100
2009-04-28,CBS,Buy,100
2009-05-01,CBS,Sell,100
2009-05-01,KEY,Buy,100
2009-05-06,KEY,Sell,100
2009-05-05,IPG,Buy,100
2009-05-08,IPG,Sell,100
2009-05-07,IPG,Buy,100
2009-05-12,IPG,Sell,100
2009-05-07,SLM,Buy,100
2009-05-12,SLM,Sell,100
2009-05-11,RF,Buy,100
2009-05-15,RF,Sell,100
2009-05-11,SLM,Buy,100
2009-05-15,SLM,Sell,100
2009-05-12,F,Buy,100
2009-05-15,F,Sell,100
2009-05-13,KEY,Buy,100
2009-05-18,KEY,Sell,100
2009-05-13,TER,Buy,100
2009-05-18,TER,Sell,100
2009-05-13,XRX,Buy,100
2009-05-18,XRX,Sell,100
2009-05-19,KEY,Buy,100
2009-05-22,KEY,Sell,100
2009-05-22,SLM,Buy,100
2009-05-27,SLM,Sell,100
2009-06-03,SLM,Buy,100
2009-06-08,SLM,Sell,100
2009-06-11,F,Buy,100
2009-06-16,F,Sell,100
2009-06-15,F,Buy,100
2009-06-19,F,Sell,100
2009-06-15,IPG,Buy,100
2009-06-19,IPG,Sell,100
2009-06-15,KEY,Buy,100
2009-06-19,KEY,Sell,100
2009-06-16,JDSU,Buy,100
2009-06-19,JDSU,Sell,100
2009-06-17,GNW,Buy,100
2009-06-22,GNW,Sell,100
2009-06-22,KEY,Buy,100
2009-06-26,KEY,Sell,100
2009-07-01,F,Buy,100
2009-07-06,F,Sell,100
2009-07-07,CBS,Buy,100
2009-07-10,CBS,Sell,100
2009-07-08,GNW,Buy,100
2009-07-13,GNW,Sell,100
2009-07-28,IPG,Buy,100
2009-07-31,IPG,Sell,100
2009-08-05,JDSU,Buy,100
2009-08-10,JDSU,Sell,100
2009-08-10,IPG,Buy,100
2009-08-14,IPG,Sell,100
2009-08-12,IPG,Buy,100
2009-08-17,IPG,Sell,100
2009-08-14,JDSU,Buy,100
2009-08-19,JDSU,Sell,100
2009-08-17,IPG,Buy,100
2009-08-21,IPG,Sell,100
2009-09-02,KEY,Buy,100
2009-09-04,KEY,Sell,100
2009-09-03,IPG,Buy,100
2009-09-08,IPG,Sell,100
2009-09-11,KEY,Buy,100
2009-09-16,KEY,Sell,100
2009-09-24,AMD,Buy,100
2009-09-29,AMD,Sell,100
2009-10-01,RF,Buy,100
2009-10-06,RF,Sell,100
2009-10-08,RF,Buy,100
2009-10-13,RF,Sell,100
2009-10-13,RF,Buy,100
2009-10-16,RF,Sell,100
2009-10-16,AMD,Buy,100
2009-10-21,AMD,Sell,100
2009-10-16,RF,Buy,100
2009-10-21,RF,Sell,100
2009-10-16,THC,Buy,100
2009-10-21,THC,Sell,100
2009-10-23,THC,Buy,100
2009-10-28,THC,Sell,100
2009-10-27,KEY,Buy,100
2009-10-30,KEY,Sell,100
2009-10-28,IPG,Buy,100
2009-11-02,IPG,Sell,100
2009-10-28,JDSU,Buy,100
2009-11-02,JDSU,Sell,100
2009-11-02,IPG,Buy,100
2009-11-06,IPG,Sell,100
2009-11-06,PCS,Buy,100
2009-11-11,PCS,Sell,100
2009-11-10,PCS,Buy,100
2009-11-13,PCS,Sell,100
2009-12-03,KEY,Buy,100
2009-12-08,KEY,Sell,100
2009-12-07,KEY,Buy,100
2009-12-11,KEY,Sell,100
2009-12-15,KEY,Buy,100
2009-12-18,KEY,Sell,100
2009-12-29,LSI,Buy,100
2009-12-31,LSI,Sell,100
