date,cash,unrealized_yield
2011-01-10 00:00:00,486325.0,1000000.0
2011-01-11 00:00:00,486325.0,998785.0
2011-01-12 00:00:00,486325.0,1002955.0
2011-01-13 00:00:00,409565.0,1004845.0
2011-01-14 00:00:00,409565.0,1009565.0
2011-01-15 00:00:00,nan,nan
2011-01-16 00:00:00,nan,nan
2011-01-17 00:00:00,nan,nan
2011-01-18 00:00:00,409565.0,1012165.0
2011-01-19 00:00:00,409565.0,1032325.0
2011-01-20 00:00:00,409565.0,1032765.0
2011-01-21 00:00:00,409565.0,1031565.0
2011-01-22 00:00:00,nan,nan
2011-01-23 00:00:00,nan,nan
2011-01-24 00:00:00,409565.0,1048085.0
2011-01-25 00:00:00,409565.0,1055325.0
2011-01-26 00:00:00,-206935.0,1053725.0
2011-01-27 00:00:00,-206935.0,1054135.0
2011-01-28 00:00:00,-206935.0,1030895.0
2011-01-29 00:00:00,nan,nan
2011-01-30 00:00:00,nan,nan
2011-01-31 00:00:00,-206935.0,1041425.0
2011-02-01 00:00:00,-206935.0,1058345.0
2011-02-02 00:00:00,126705.0,1058265.0
2011-02-03 00:00:00,126705.0,1057215.0
2011-02-04 00:00:00,126705.0,1060565.0
2011-02-05 00:00:00,nan,nan
2011-02-06 00:00:00,nan,nan
2011-02-07 00:00:00,126705.0,1064555.0
2011-02-08 00:00:00,126705.0,1077365.0
2011-02-09 00:00:00,126705.0,1071605.0
2011-02-10 00:00:00,-206095.0,1066705.0
2011-02-11 00:00:00,-206095.0,1073805.0
2011-02-12 00:00:00,nan,nan
2011-02-13 00:00:00,nan,nan
2011-02-14 00:00:00,-206095.0,1074935.0
2011-02-15 00:00:00,-206095.0,1069415.0
2011-02-16 00:00:00,-206095.0,1071725.0
2011-02-17 00:00:00,-206095.0,1076125.0
2011-02-18 00:00:00,-206095.0,1083345.0
2011-02-19 00:00:00,nan,nan
2011-02-20 00:00:00,nan,nan
2011-02-21 00:00:00,nan,nan
2011-02-22 00:00:00,-206095.0,1051915.0
2011-02-23 00:00:00,-206095.0,1045945.0
2011-02-24 00:00:00,-206095.0,1045805.0
2011-02-25 00:00:00,-206095.0,1053065.0
2011-02-26 00:00:00,nan,nan
2011-02-27 00:00:00,nan,nan
2011-02-28 00:00:00,-206095.0,1054825.0
2011-03-01 00:00:00,-206095.0,1034545.0
2011-03-02 00:00:00,-206095.0,1035335.0
2011-03-03 00:00:00,763121.0,1057385.0
2011-03-04 00:00:00,763121.0,1054415.0
2011-03-05 00:00:00,nan,nan
2011-03-06 00:00:00,nan,nan
2011-03-07 00:00:00,763121.0,1050995.0
2011-03-08 00:00:00,763121.0,1055225.0
2011-03-09 00:00:00,763121.0,1061669.0
2011-03-10 00:00:00,763121.0,1054757.0
2011-03-11 00:00:00,763121.0,1055495.0
2011-03-12 00:00:00,nan,nan
2011-03-13 00:00:00,nan,nan
2011-03-14 00:00:00,763121.0,1053623.0
2011-03-15 00:00:00,763121.0,1049357.0
2011-03-16 00:00:00,763121.0,1038521.0
2011-03-17 00:00:00,763121.0,1040645.0
2011-03-18 00:00:00,763121.0,1043723.0
2011-03-19 00:00:00,nan,nan
2011-03-20 00:00:00,nan,nan
2011-03-21 00:00:00,763121.0,1046945.0
2011-03-22 00:00:00,763121.0,1047521.0
2011-03-23 00:00:00,763121.0,1050275.0
2011-03-24 00:00:00,763121.0,1051193.0
2011-03-25 00:00:00,763121.0,1055045.0
2011-03-26 00:00:00,nan,nan
2011-03-27 00:00:00,nan,nan
2011-03-28 00:00:00,763121.0,1053587.0
2011-03-29 00:00:00,763121.0,1056305.0
2011-03-30 00:00:00,763121.0,1057601.0
2011-03-31 00:00:00,763121.0,1056647.0
2011-04-01 00:00:00,763121.0,1058807.0
2011-04-02 00:00:00,nan,nan
2011-04-03 00:00:00,nan,nan
2011-04-04 00:00:00,763121.0,1058771.0
2011-04-05 00:00:00,763121.0,1058303.0
2011-04-06 00:00:00,763121.0,1058393.0
2011-04-07 00:00:00,763121.0,1059005.0
2011-04-08 00:00:00,763121.0,1058411.0
2011-04-09 00:00:00,nan,nan
2011-04-10 00:00:00,nan,nan
2011-04-11 00:00:00,763121.0,1058231.0
2011-04-12 00:00:00,763121.0,1056971.0
2011-04-13 00:00:00,763121.0,1058231.0
2011-04-14 00:00:00,763121.0,1060067.0
2011-04-15 00:00:00,763121.0,1062299.0
2011-04-16 00:00:00,nan,nan
2011-04-17 00:00:00,nan,nan
2011-04-18 00:00:00,763121.0,1061813.0
2011-04-19 00:00:00,763121.0,1060841.0
2011-04-20 00:00:00,763121.0,1059671.0
2011-04-21 00:00:00,763121.0,1066025.0
2011-04-22 00:00:00,nan,nan
2011-04-23 00:00:00,nan,nan
2011-04-24 00:00:00,nan,nan
2011-04-25 00:00:00,763121.0,1064927.0
2011-04-26 00:00:00,763121.0,1066403.0
2011-04-27 00:00:00,763121.0,1069787.0
2011-04-28 00:00:00,763121.0,1070525.0
2011-04-29 00:00:00,763121.0,1070165.0
2011-04-30 00:00:00,nan,nan
2011-05-01 00:00:00,nan,nan
2011-05-02 00:00:00,763121.0,1072991.0
2011-05-03 00:00:00,503816.0,1074287.0
2011-05-04 00:00:00,503816.0,1066862.0
2011-05-05 00:00:00,503816.0,1059734.0
2011-05-06 00:00:00,503816.0,1061153.0
2011-05-07 00:00:00,nan,nan
2011-05-08 00:00:00,nan,nan
2011-05-09 00:00:00,503816.0,1061846.0
2011-05-10 00:00:00,503816.0,1066070.0
2011-05-11 00:00:00,503816.0,1063166.0
2011-05-12 00:00:00,503816.0,1072208.0
2011-05-13 00:00:00,503816.0,1064552.0
2011-05-14 00:00:00,nan,nan
2011-05-15 00:00:00,nan,nan
2011-05-16 00:00:00,503816.0,1061054.0
2011-05-17 00:00:00,503816.0,1066466.0
2011-05-18 00:00:00,503816.0,1066268.0
2011-05-19 00:00:00,503816.0,1066763.0
2011-05-20 00:00:00,503816.0,1065344.0
2011-05-21 00:00:00,nan,nan
2011-05-22 00:00:00,nan,nan
2011-05-23 00:00:00,503816.0,1059074.0
2011-05-24 00:00:00,503816.0,1058183.0
2011-05-25 00:00:00,503816.0,1057391.0
2011-05-26 00:00:00,503816.0,1055510.0
2011-05-27 00:00:00,503816.0,1056566.0
2011-05-28 00:00:00,nan,nan
2011-05-29 00:00:00,nan,nan
2011-05-30 00:00:00,nan,nan
2011-05-31 00:00:00,503816.0,1061285.0
2011-06-01 00:00:00,503816.0,1053464.0
2011-06-02 00:00:00,503816.0,1051913.0
2011-06-03 00:00:00,1048481.0,1048481.0
2011-06-04 00:00:00,nan,nan
2011-06-05 00:00:00,nan,nan
2011-06-06 00:00:00,1048481.0,1048481.0
2011-06-07 00:00:00,1048481.0,1048481.0
2011-06-08 00:00:00,1048481.0,1048481.0
2011-06-09 00:00:00,1048481.0,1048481.0
2011-06-10 00:00:00,657401.0,1048481.0
2011-06-11 00:00:00,nan,nan
2011-06-12 00:00:00,nan,nan
2011-06-13 00:00:00,657401.0,1049321.0
2011-06-14 00:00:00,657401.0,1056329.0
2011-06-15 00:00:00,657401.0,1049501.0
2011-06-16 00:00:00,657401.0,1047593.0
2011-06-17 00:00:00,657401.0,1041713.0
2011-06-18 00:00:00,nan,nan
2011-06-19 00:00:00,nan,nan
2011-06-20 00:00:00,657401.0,1035785.0
2011-06-21 00:00:00,657401.0,1047761.0
2011-06-22 00:00:00,657401.0,1044533.0
2011-06-23 00:00:00,657401.0,1054877.0
2011-06-24 00:00:00,657401.0,1049021.0
2011-06-25 00:00:00,nan,nan
2011-06-26 00:00:00,nan,nan
2011-06-27 00:00:00,657401.0,1055849.0
2011-06-28 00:00:00,657401.0,1059713.0
2011-06-29 00:00:00,657401.0,1058249.0
2011-06-30 00:00:00,657401.0,1060205.0
2011-07-01 00:00:00,657401.0,1069313.0
2011-07-02 00:00:00,nan,nan
2011-07-03 00:00:00,nan,nan
2011-07-04 00:00:00,nan,nan
2011-07-05 00:00:00,657401.0,1076717.0
2011-07-06 00:00:00,657401.0,1079513.0
2011-07-07 00:00:00,657401.0,1086041.0
2011-07-08 00:00:00,657401.0,1089053.0
2011-07-09 00:00:00,nan,nan
2011-07-10 00:00:00,nan,nan
2011-07-11 00:00:00,657401.0,1082201.0
2011-07-12 00:00:00,657401.0,1081901.0
2011-07-13 00:00:00,657401.0,1087025.0
2011-07-14 00:00:00,657401.0,1086725.0
2011-07-15 00:00:00,657401.0,1095305.0
2011-07-16 00:00:00,nan,nan
2011-07-17 00:00:00,nan,nan
2011-07-18 00:00:00,657401.0,1105961.0
2011-07-19 00:00:00,657401.0,1109621.0
2011-07-20 00:00:00,657401.0,1121681.0
2011-07-21 00:00:00,657401.0,1122149.0
2011-07-22 00:00:00,657401.0,1129361.0
2011-07-23 00:00:00,nan,nan
2011-07-24 00:00:00,nan,nan
2011-07-25 00:00:00,657401.0,1135601.0
2011-07-26 00:00:00,657401.0,1141493.0
2011-07-27 00:00:00,657401.0,1128509.0
2011-07-28 00:00:00,657401.0,1127585.0
2011-07-29 00:00:00,657401.0,1125977.0
2011-07-30 00:00:00,nan,nan
2011-07-31 00:00:00,nan,nan
2011-08-01 00:00:00,624028.65,1133501.0
2011-08-02 00:00:00,656610.65,1123302.65
2011-08-03 00:00:00,656610.65,1127694.65
2011-08-04 00:00:00,656610.65,1109454.65
2011-08-05 00:00:00,656610.65,1104954.65
2011-08-06 00:00:00,nan,nan
2011-08-07 00:00:00,nan,nan
2011-08-08 00:00:00,656610.65,1080462.65
2011-08-09 00:00:00,656610.65,1105422.65
2011-08-10 00:00:00,656610.65,1093038.65
2011-08-11 00:00:00,656610.65,1105050.65
2011-08-12 00:00:00,656610.65,1108998.65
2011-08-13 00:00:00,nan,nan
2011-08-14 00:00:00,nan,nan
2011-08-15 00:00:00,656610.65,1116702.65
2011-08-16 00:00:00,656610.65,1113186.65
2011-08-17 00:00:00,656610.65,1113138.65
2011-08-18 00:00:00,656610.65,1095870.65
2011-08-19 00:00:00,656610.65,1083846.65
2011-08-20 00:00:00,nan,nan
2011-08-21 00:00:00,nan,nan
2011-08-22 00:00:00,656610.65,1084338.65
2011-08-23 00:00:00,656610.65,1104930.65
2011-08-24 00:00:00,656610.65,1108026.65
2011-08-25 00:00:00,656610.65,1105074.65
2011-08-26 00:00:00,656610.65,1116906.65
2011-08-27 00:00:00,nan,nan
2011-08-28 00:00:00,nan,nan
2011-08-29 00:00:00,656610.65,1124574.65
2011-08-30 00:00:00,656610.65,1124598.65
2011-08-31 00:00:00,656610.65,1118406.65
2011-09-01 00:00:00,656610.65,1113846.65
2011-09-02 00:00:00,656610.65,1105470.65
2011-09-03 00:00:00,nan,nan
2011-09-04 00:00:00,nan,nan
2011-09-05 00:00:00,nan,nan
2011-09-06 00:00:00,656610.65,1112298.65
2011-09-07 00:00:00,656610.65,1117326.65
2011-09-08 00:00:00,656610.65,1117578.65
2011-09-09 00:00:00,656610.65,1109586.65
2011-09-10 00:00:00,nan,nan
2011-09-11 00:00:00,nan,nan
2011-09-12 00:00:00,656610.65,1112538.65
2011-09-13 00:00:00,656610.65,1118154.65
2011-09-14 00:00:00,656610.65,1123770.65
2011-09-15 00:00:00,656610.65,1128162.65
2011-09-16 00:00:00,656610.65,1137210.65
2011-09-17 00:00:00,nan,nan
2011-09-18 00:00:00,nan,nan
2011-09-19 00:00:00,656610.65,1150566.65
2011-09-20 00:00:00,656610.65,1152750.65
2011-09-21 00:00:00,656610.65,1151178.65
2011-09-22 00:00:00,656610.65,1138794.65
2011-09-23 00:00:00,656610.65,1141770.65
2011-09-24 00:00:00,nan,nan
2011-09-25 00:00:00,nan,nan
2011-09-26 00:00:00,656610.65,1140414.65
2011-09-27 00:00:00,656610.65,1135722.65
2011-09-28 00:00:00,656610.65,1133022.65
2011-09-29 00:00:00,656610.65,1125294.65
2011-09-30 00:00:00,656610.65,1114194.65
2011-10-01 00:00:00,nan,nan
2011-10-02 00:00:00,nan,nan
2011-10-03 00:00:00,656610.65,1106130.65
2011-10-04 00:00:00,656610.65,1103610.65
2011-10-05 00:00:00,656610.65,1110510.65
2011-10-06 00:00:00,656610.65,1109454.65
2011-10-07 00:00:00,656610.65,1100370.65
2011-10-08 00:00:00,nan,nan
2011-10-09 00:00:00,nan,nan
2011-10-10 00:00:00,656610.65,1123182.65
2011-10-11 00:00:00,656610.65,1136958.65
2011-10-12 00:00:00,656610.65,1139238.65
2011-10-13 00:00:00,656610.65,1146726.65
2011-10-14 00:00:00,656610.65,1163010.65
2011-10-15 00:00:00,nan,nan
2011-10-16 00:00:00,nan,nan
2011-10-17 00:00:00,656610.65,1160598.65
2011-10-18 00:00:00,656610.65,1163298.65
2011-10-19 00:00:00,656610.65,1134954.65
2011-10-20 00:00:00,656610.65,1130982.65
2011-10-21 00:00:00,656610.65,1128054.65
2011-10-22 00:00:00,nan,nan
2011-10-23 00:00:00,nan,nan
2011-10-24 00:00:00,656610.65,1143534.65
2011-10-25 00:00:00,656610.65,1133934.65
2011-10-26 00:00:00,656610.65,1137330.65
2011-10-27 00:00:00,656610.65,1142238.65
2011-10-28 00:00:00,656610.65,1142550.65
2011-10-29 00:00:00,nan,nan
2011-10-30 00:00:00,nan,nan
2011-10-31 00:00:00,656610.65,1142346.65
2011-11-01 00:00:00,656610.65,1132422.65
2011-11-02 00:00:00,656610.65,1133502.65
2011-11-03 00:00:00,656610.65,1140294.65
2011-11-04 00:00:00,656610.65,1136898.65
2011-11-05 00:00:00,nan,nan
2011-11-06 00:00:00,nan,nan
2011-11-07 00:00:00,656610.65,1136286.65
2011-11-08 00:00:00,656610.65,1144086.65
2011-11-09 00:00:00,656610.65,1130946.65
2011-11-10 00:00:00,656610.65,1118874.65
2011-11-11 00:00:00,656610.65,1118154.65
2011-11-12 00:00:00,nan,nan
2011-11-13 00:00:00,nan,nan
2011-11-14 00:00:00,656610.65,1111722.65
2011-11-15 00:00:00,656610.65,1123206.65
2011-11-16 00:00:00,656610.65,1118334.65
2011-11-17 00:00:00,656610.65,1109502.65
2011-11-18 00:00:00,656610.65,1106538.65
2011-11-19 00:00:00,nan,nan
2011-11-20 00:00:00,nan,nan
2011-11-21 00:00:00,656610.65,1099422.65
2011-11-22 00:00:00,656610.65,1108422.65
2011-11-23 00:00:00,656610.65,1096998.65
2011-11-24 00:00:00,nan,nan
2011-11-25 00:00:00,656610.65,1092894.65
2011-11-26 00:00:00,nan,nan
2011-11-27 00:00:00,nan,nan
2011-11-28 00:00:00,656610.65,1107954.65
2011-11-29 00:00:00,656610.65,1104450.65
2011-11-30 00:00:00,656610.65,1115250.65
2011-12-01 00:00:00,656610.65,1122126.65
2011-12-02 00:00:00,656610.65,1124250.65
2011-12-03 00:00:00,nan,nan
2011-12-04 00:00:00,nan,nan
2011-12-05 00:00:00,656610.65,1128222.65
2011-12-06 00:00:00,656610.65,1125750.65
2011-12-07 00:00:00,656610.65,1123518.65
2011-12-08 00:00:00,656610.65,1125402.65
2011-12-09 00:00:00,656610.65,1128954.65
2011-12-10 00:00:00,nan,nan
2011-12-11 00:00:00,nan,nan
2011-12-12 00:00:00,656610.65,1126818.65
2011-12-13 00:00:00,656610.65,1123182.65
2011-12-14 00:00:00,656610.65,1112838.65
2011-12-15 00:00:00,656610.65,1111338.65
2011-12-16 00:00:00,656610.65,1113834.65
2011-12-17 00:00:00,nan,nan
2011-12-18 00:00:00,nan,nan
2011-12-19 00:00:00,656610.65,1115262.65
2011-12-20 00:00:00,1131750.65,1131750.65
